// Jest Snapshot v1, https://goo.gl/fbAQLP

exports[`components | App  should render component 1`] = `
<div>
  <div
    class="MuiGrid-root makeStyles-container-1"
  >
    <div
      class="MuiGrid-root makeStyles-container-107 MuiGrid-container MuiGrid-direction-xs-column MuiGrid-align-items-xs-center MuiGrid-justify-xs-center"
    >
      <img
        class="MuiCardMedia-root makeStyles-image-108 MuiCardMedia-media MuiCardMedia-img"
        src="https://mlpnk72yciwc.i.optimole.com/cqhiHA-rNTEul5O/w:600/h:323/q:90/http://www.bleedingcool.com/wp-content/uploads/2014/03/marvel.jpg"
      />
      <div
        class="MuiGrid-root"
      >
        <span
          aria-hidden="true"
          class="material-icons MuiIcon-root fas fa-circle-notch fa-spin makeStyles-loading-106"
        />
      </div>
    </div>
  </div>
</div>
`;
